2018-09-04 18:46:59.459 +07:00 [INF] ********************************************************************************
2018-09-04 18:46:59.522 +07:00 [INF] Bot started session
2018-09-04 18:47:00.076 +07:00 [INF] AppSettings serialized:
{
  "Bot": {
    "TradeAmount": {
      "Btc": 0.002,
      "Eth": 0.01,
      "Ledu": 80.0,
      "Zec": 0.04
    },
    "Telegram": {
      "ApiKey": "541930260:AAEY_2SCpLwBcTTtrQsOArAHptGuRyxWprE",
      "ChatId": -261385702,
      "ChatId2": 0
    },
    "PriceManagement": {
      "IsEnabled": false,
      "BuyTopOrder": {
        "IterationTimeoutInSeconds": 20.0,
        "OrderCancellationTimeoutInSeconds": 3.0,
        "LastTradeDiffTresholdInPercentage_Min": 0.1,
        "LastTradeDiffTresholdInPercentage_Max": 0.15,
        "Exchanges": {
          "Idex0": {
            "LEDU/ETH": {
              "BuyAmount_Min": 5500.0,
              "BuyAmount_Max": 6000.0
            }
          }
        }
      },
      "MinSpread": {
        "IterationTimeoutInSeconds": 20.0,
        "SpreadTresholdInPercentage_Min": 1.0,
        "SpreadTresholdInPercentage_Max": 2.0,
        "PriceIncreaseInPercentage": 0.1,
        "Exchanges": {
          "Idex0": {
            "LEDU/ETH": {
              "BuyAmount_Min": 5500.0,
              "BuyAmount_Max": 6000.0
            }
          }
        }
      }
    },
    "WashTrading": {
      "IsEnabled": false,
      "PriceMaxDropdown": 5.0,
      "TradesAnalizeWindowDuration": 5.0,
      "ExchangePairs": [
        {
          "Exchange1": "Bitforex0",
          "Exchange2": "Bitforex1",
          "Symbols": [
            "LEDU/ETH"
          ]
        }
      ]
    },
    "Liquidity": {
      "IsEnabled": false,
      "AllowedMaxSpread": 0.1,
      "Exchanges": {
        "GateIo0": [
          "LEDU/ETH"
        ]
      }
    }
  },
  "Core": {
    "Timeout": {
      "Bitforex0": 1000,
      "Bitforex1": 1000,
      "Bitforex2": 1000,
      "Bitforex3": 1000,
      "GateIo0": 1000,
      "Livecoin0": 0
    },
    "IsRecordingMarketData": true,
    "IsReducingMarketData": true,
    "IsTrading": true,
    "Database": {
      "ConnectionString": "Server=localhost;database=cryptolpbotledu;Pooling=false;"
    },
    "Commissions": {
      "Bitforex0": {
        "Fee": 0.05,
        "ReferralReward": 0.0,
        "EffectiveComission": 0.0500
      },
      "GateIo0": {
        "Fee": 0.2,
        "ReferralReward": 0.0,
        "EffectiveComission": 0.200
      },
      "Idex0": {
        "Fee": 0.2,
        "ReferralReward": 0.0,
        "EffectiveComission": 0.200
      },
      "Livecoin0": {
        "Fee": 0.2,
        "ReferralReward": 0.0,
        "EffectiveComission": 0.200
      }
    },
    "Exchanges": [
      {
        "Index": 0,
        "Name": "Livecoin",
        "IsTrading": null,
        "RestHost": null,
        "SequentialRest": false,
        "RequestOrderBook": false,
        "RequestTrades": false,
        "RequestCandlestick": false,
        "WebSocketHost": null,
        "WebSocket2Host": null,
        "DisableWebSocket": false,
        "Proxy": {
          "Url": "107.174.227.158:80",
          "UserName": "cdt",
          "Password": "123!Apassword"
        },
        "ApiKey": "vVfjYcSRcxW29rYEttWJFQGKQNJ17xxg",
        "ApiSecret": "hPnAxsNF8wCVUCtnJeypD2C1CHYx2QWY",
        "PubNubSubscribeKey": null,
        "WebSocketChannels": [],
        "CurrencyPairs": [
          {
            "Base": "LEDU",
            "Quote": "ETH"
          },
          {
            "Base": "LEDU",
            "Quote": "BTC"
          }
        ],
        "BalanceLimits": null,
        "Wallets": null,
        "SeleniumHost": null
      },
      {
        "Index": 1,
        "Name": "Livecoin",
        "IsTrading": false,
        "RestHost": null,
        "SequentialRest": false,
        "RequestOrderBook": true,
        "RequestTrades": false,
        "RequestCandlestick": false,
        "WebSocketHost": null,
        "WebSocket2Host": null,
        "DisableWebSocket": false,
        "Proxy": {
          "Url": "181.214.213.8:80",
          "UserName": "cdt",
          "Password": "123!Apassword"
        },
        "ApiKey": null,
        "ApiSecret": null,
        "PubNubSubscribeKey": null,
        "WebSocketChannels": [],
        "CurrencyPairs": [
          {
            "Base": "LEDU",
            "Quote": "ETH"
          }
        ],
        "BalanceLimits": null,
        "Wallets": null,
        "SeleniumHost": null
      },
      {
        "Index": 2,
        "Name": "Livecoin",
        "IsTrading": false,
        "RestHost": null,
        "SequentialRest": false,
        "RequestOrderBook": false,
        "RequestTrades": true,
        "RequestCandlestick": false,
        "WebSocketHost": null,
        "WebSocket2Host": null,
        "DisableWebSocket": false,
        "Proxy": {
          "Url": "185.202.114.11:80",
          "UserName": "cdt",
          "Password": "123!Apassword"
        },
        "ApiKey": null,
        "ApiSecret": null,
        "PubNubSubscribeKey": null,
        "WebSocketChannels": [],
        "CurrencyPairs": [
          {
            "Base": "LEDU",
            "Quote": "ETH"
          }
        ],
        "BalanceLimits": null,
        "Wallets": null,
        "SeleniumHost": null
      },
      {
        "Index": 3,
        "Name": "Livecoin",
        "IsTrading": false,
        "RestHost": null,
        "SequentialRest": false,
        "RequestOrderBook": true,
        "RequestTrades": false,
        "RequestCandlestick": false,
        "WebSocketHost": null,
        "WebSocket2Host": null,
        "DisableWebSocket": false,
        "Proxy": {
          "Url": "181.214.212.121:80",
          "UserName": "cdt",
          "Password": "123!Apassword"
        },
        "ApiKey": null,
        "ApiSecret": null,
        "PubNubSubscribeKey": null,
        "WebSocketChannels": [],
        "CurrencyPairs": [
          {
            "Base": "LEDU",
            "Quote": "BTC"
          }
        ],
        "BalanceLimits": null,
        "Wallets": null,
        "SeleniumHost": null
      },
      {
        "Index": 4,
        "Name": "Livecoin",
        "IsTrading": false,
        "RestHost": null,
        "SequentialRest": false,
        "RequestOrderBook": false,
        "RequestTrades": true,
        "RequestCandlestick": false,
        "WebSocketHost": null,
        "WebSocket2Host": null,
        "DisableWebSocket": false,
        "Proxy": {
          "Url": "107.175.13.219:80",
          "UserName": "cdt",
          "Password": "123!Apassword"
        },
        "ApiKey": null,
        "ApiSecret": null,
        "PubNubSubscribeKey": null,
        "WebSocketChannels": [],
        "CurrencyPairs": [
          {
            "Base": "LEDU",
            "Quote": "BTC"
          }
        ],
        "BalanceLimits": null,
        "Wallets": null,
        "SeleniumHost": null
      },
      {
        "Index": 0,
        "Name": "Idex",
        "IsTrading": null,
        "RestHost": null,
        "SequentialRest": false,
        "RequestOrderBook": true,
        "RequestTrades": true,
        "RequestCandlestick": false,
        "WebSocketHost": null,
        "WebSocket2Host": null,
        "DisableWebSocket": false,
        "Proxy": null,
        "ApiKey": "0x5073a5012b06696a1c83b477ca049f5487150283",
        "ApiSecret": "0xaf68c2100468a3d5e43c56d1c964b2c23cb873e0d5ca47c875a800d722c33795",
        "PubNubSubscribeKey": null,
        "WebSocketChannels": [],
        "CurrencyPairs": [
          {
            "Base": "LEDU",
            "Quote": "ETH"
          }
        ],
        "BalanceLimits": null,
        "Wallets": null,
        "SeleniumHost": null
      },
      {
        "Index": 0,
        "Name": "Bitforex",
        "IsTrading": null,
        "RestHost": null,
        "SequentialRest": false,
        "RequestOrderBook": false,
        "RequestTrades": false,
        "RequestCandlestick": false,
        "WebSocketHost": null,
        "WebSocket2Host": null,
        "DisableWebSocket": false,
        "Proxy": {
          "Url": "181.214.213.8:80",
          "UserName": "cdt",
          "Password": "123!Apassword"
        },
        "ApiKey": "7148088762f3cdd89355d1f9d05e24fd",
        "ApiSecret": "715d890eedf2579d829c8427ba4b0ea3",
        "PubNubSubscribeKey": null,
        "WebSocketChannels": [],
        "CurrencyPairs": [
          {
            "Base": "LEDU",
            "Quote": "ETH"
          }
        ],
        "BalanceLimits": null,
        "Wallets": null,
        "SeleniumHost": null
      },
      {
        "Index": 1,
        "Name": "Bitforex",
        "IsTrading": null,
        "RestHost": null,
        "SequentialRest": false,
        "RequestOrderBook": false,
        "RequestTrades": false,
        "RequestCandlestick": false,
        "WebSocketHost": null,
        "WebSocket2Host": null,
        "DisableWebSocket": false,
        "Proxy": {
          "Url": "185.202.114.11:80",
          "UserName": "cdt",
          "Password": "123!Apassword"
        },
        "ApiKey": "fa18791bb473a9561c74f72de31f51c8",
        "ApiSecret": "70b65b2e218881131b3b9fc6cee5baa3",
        "PubNubSubscribeKey": null,
        "WebSocketChannels": [],
        "CurrencyPairs": [
          {
            "Base": "LEDU",
            "Quote": "ETH"
          }
        ],
        "BalanceLimits": null,
        "Wallets": null,
        "SeleniumHost": null
      },
      {
        "Index": 2,
        "Name": "Bitforex",
        "IsTrading": false,
        "RestHost": null,
        "SequentialRest": false,
        "RequestOrderBook": true,
        "RequestTrades": false,
        "RequestCandlestick": false,
        "WebSocketHost": null,
        "WebSocket2Host": null,
        "DisableWebSocket": false,
        "Proxy": {
          "Url": "181.214.212.121:80",
          "UserName": "cdt",
          "Password": "123!Apassword"
        },
        "ApiKey": null,
        "ApiSecret": null,
        "PubNubSubscribeKey": null,
        "WebSocketChannels": [],
        "CurrencyPairs": [
          {
            "Base": "LEDU",
            "Quote": "ETH"
          }
        ],
        "BalanceLimits": null,
        "Wallets": null,
        "SeleniumHost": null
      },
      {
        "Index": 3,
        "Name": "Bitforex",
        "IsTrading": false,
        "RestHost": null,
        "SequentialRest": false,
        "RequestOrderBook": false,
        "RequestTrades": true,
        "RequestCandlestick": false,
        "WebSocketHost": null,
        "WebSocket2Host": null,
        "DisableWebSocket": false,
        "Proxy": {
          "Url": "107.175.13.219:80",
          "UserName": "cdt",
          "Password": "123!Apassword"
        },
        "ApiKey": null,
        "ApiSecret": null,
        "PubNubSubscribeKey": null,
        "WebSocketChannels": [],
        "CurrencyPairs": [
          {
            "Base": "LEDU",
            "Quote": "ETH"
          }
        ],
        "BalanceLimits": null,
        "Wallets": null,
        "SeleniumHost": null
      }
    ],
    "Arbitrage": null,
    "SignalProviders": null,
    "TargetSignals": null
  }
}
2018-09-04 18:47:52.967 +07:00 [INF] Starting bot
2018-09-04 18:47:52.989 +07:00 [INF] Connecting
2018-09-04 18:47:52.997 +07:00 [INF] Connecting
2018-09-04 18:47:52.999 +07:00 [INF] Connecting
2018-09-04 18:47:52.999 +07:00 [INF] Connecting
2018-09-04 18:47:52.999 +07:00 [INF] Connecting
2018-09-04 18:47:52.999 +07:00 [INF] Connecting
2018-09-04 18:47:53.000 +07:00 [INF] Connecting
2018-09-04 18:47:53.000 +07:00 [INF] Connecting
2018-09-04 18:47:53.000 +07:00 [INF] Connecting
2018-09-04 18:47:53.006 +07:00 [INF] Connecting
2018-09-04 18:47:53.105 +07:00 [INF] Canceling opened orders started
2018-09-04 18:48:00.760 +07:00 [INF] Canceling opened orders finished
2018-09-04 18:48:00.762 +07:00 [INF] Getting balances started
2018-09-04 18:48:06.392 +07:00 [ERR] IsRestError callback got an error on Bitforex3: 10204 请求太频繁,请稍后再试
2018-09-04 18:48:06.736 +07:00 [INF] Getting balances finished
2018-09-04 18:48:06.760 +07:00 [INF] Started bot
2018-09-04 18:48:07.179 +07:00 [ERR] Exception in HandleMarketData
System.ArgumentException: The tasks argument contains no tasks.
Parameter name: tasks
   at System.Threading.Tasks.Task.WhenAny(IEnumerable`1 tasks)
   at CryptoLp.Bot.Bot.HandleMarketData(Object obj) in /Users/alexidsa/Code/CryptoDreamTeam/CryptoLp/Bot/Bot.cs:line 75
2018-09-04 18:48:08.818 +07:00 [ERR] Unhandled exception
System.ArgumentException: The tasks argument contains no tasks.
Parameter name: tasks
   at System.Threading.Tasks.Task.WhenAny(IEnumerable`1 tasks)
   at CryptoLp.Bot.Bot.HandleMarketData(Object obj) in /Users/alexidsa/Code/CryptoDreamTeam/CryptoLp/Bot/Bot.cs:line 75
   at System.Runtime.CompilerServices.AsyncMethodBuilderCore.<>c.<ThrowAsync>b__7_1(Object state)
   at System.Threading.QueueUserWorkItemCallbackDefaultContext.<>c.<.cctor>b__5_0(Object state)
   at System.Threading.ExecutionContext.RunInternal(ExecutionContext executionContext, ContextCallback callback, Object state)
--- End of stack trace from previous location where exception was thrown ---
   at System.Threading.ExecutionContext.RunInternal(ExecutionContext executionContext, ContextCallback callback, Object state)
   at System.Threading.QueueUserWorkItemCallbackDefaultContext.ExecuteWorkItem()
   at System.Threading.ThreadPoolWorkQueue.Dispatch()
   at System.Threading._ThreadPoolWaitCallback.PerformWaitCallback()
2018-09-04 18:49:36.122 +07:00 [INF] ********************************************************************************
2018-09-04 18:49:36.185 +07:00 [INF] Bot started session
2018-09-04 18:49:36.724 +07:00 [INF] AppSettings serialized:
{
  "Bot": {
    "TradeAmount": {
      "Btc": 0.002,
      "Eth": 0.01,
      "Ledu": 80.0,
      "Zec": 0.04
    },
    "Telegram": {
      "ApiKey": "541930260:AAEY_2SCpLwBcTTtrQsOArAHptGuRyxWprE",
      "ChatId": -261385702,
      "ChatId2": 0
    },
    "PriceManagement": {
      "IsEnabled": false,
      "BuyTopOrder": {
        "IterationTimeoutInSeconds": 20.0,
        "OrderCancellationTimeoutInSeconds": 3.0,
        "LastTradeDiffTresholdInPercentage_Min": 0.1,
        "LastTradeDiffTresholdInPercentage_Max": 0.15,
        "Exchanges": {
          "Idex0": {
            "LEDU/ETH": {
              "BuyAmount_Min": 5500.0,
              "BuyAmount_Max": 6000.0
            }
          }
        }
      },
      "MinSpread": {
        "IterationTimeoutInSeconds": 20.0,
        "SpreadTresholdInPercentage_Min": 1.0,
        "SpreadTresholdInPercentage_Max": 2.0,
        "PriceIncreaseInPercentage": 0.1,
        "Exchanges": {
          "Idex0": {
            "LEDU/ETH": {
              "BuyAmount_Min": 5500.0,
              "BuyAmount_Max": 6000.0
            }
          }
        }
      }
    },
    "WashTrading": {
      "IsEnabled": false,
      "PriceMaxDropdown": 5.0,
      "TradesAnalizeWindowDuration": 5.0,
      "ExchangePairs": [
        {
          "Exchange1": "Bitforex0",
          "Exchange2": "Bitforex1",
          "Symbols": [
            "LEDU/ETH"
          ]
        }
      ]
    },
    "Liquidity": {
      "IsEnabled": false,
      "AllowedMaxSpread": 0.1,
      "Exchanges": {
        "GateIo0": [
          "LEDU/ETH"
        ]
      }
    }
  },
  "Core": {
    "Timeout": {
      "Bitforex0": 1000,
      "Bitforex1": 1000,
      "Bitforex2": 1000,
      "Bitforex3": 1000,
      "GateIo0": 1000,
      "Livecoin0": 0
    },
    "IsRecordingMarketData": true,
    "IsReducingMarketData": true,
    "IsTrading": true,
    "Database": {
      "ConnectionString": "Server=localhost;database=cryptolpbotledu;Pooling=false;"
    },
    "Commissions": {
      "Bitforex0": {
        "Fee": 0.05,
        "ReferralReward": 0.0,
        "EffectiveComission": 0.0500
      },
      "GateIo0": {
        "Fee": 0.2,
        "ReferralReward": 0.0,
        "EffectiveComission": 0.200
      },
      "Idex0": {
        "Fee": 0.2,
        "ReferralReward": 0.0,
        "EffectiveComission": 0.200
      },
      "Livecoin0": {
        "Fee": 0.2,
        "ReferralReward": 0.0,
        "EffectiveComission": 0.200
      }
    },
    "Exchanges": [
      {
        "Index": 0,
        "Name": "Livecoin",
        "IsTrading": null,
        "RestHost": null,
        "SequentialRest": false,
        "RequestOrderBook": false,
        "RequestTrades": false,
        "RequestCandlestick": false,
        "WebSocketHost": null,
        "WebSocket2Host": null,
        "DisableWebSocket": false,
        "Proxy": {
          "Url": "107.174.227.158:80",
          "UserName": "cdt",
          "Password": "123!Apassword"
        },
        "ApiKey": "vVfjYcSRcxW29rYEttWJFQGKQNJ17xxg",
        "ApiSecret": "hPnAxsNF8wCVUCtnJeypD2C1CHYx2QWY",
        "PubNubSubscribeKey": null,
        "WebSocketChannels": [],
        "CurrencyPairs": [
          {
            "Base": "LEDU",
            "Quote": "ETH"
          },
          {
            "Base": "LEDU",
            "Quote": "BTC"
          }
        ],
        "BalanceLimits": null,
        "Wallets": null,
        "SeleniumHost": null
      },
      {
        "Index": 1,
        "Name": "Livecoin",
        "IsTrading": false,
        "RestHost": null,
        "SequentialRest": false,
        "RequestOrderBook": true,
        "RequestTrades": false,
        "RequestCandlestick": false,
        "WebSocketHost": null,
        "WebSocket2Host": null,
        "DisableWebSocket": false,
        "Proxy": {
          "Url": "181.214.213.8:80",
          "UserName": "cdt",
          "Password": "123!Apassword"
        },
        "ApiKey": null,
        "ApiSecret": null,
        "PubNubSubscribeKey": null,
        "WebSocketChannels": [],
        "CurrencyPairs": [
          {
            "Base": "LEDU",
            "Quote": "ETH"
          }
        ],
        "BalanceLimits": null,
        "Wallets": null,
        "SeleniumHost": null
      },
      {
        "Index": 2,
        "Name": "Livecoin",
        "IsTrading": false,
        "RestHost": null,
        "SequentialRest": false,
        "RequestOrderBook": false,
        "RequestTrades": true,
        "RequestCandlestick": false,
        "WebSocketHost": null,
        "WebSocket2Host": null,
        "DisableWebSocket": false,
        "Proxy": {
          "Url": "185.202.114.11:80",
          "UserName": "cdt",
          "Password": "123!Apassword"
        },
        "ApiKey": null,
        "ApiSecret": null,
        "PubNubSubscribeKey": null,
        "WebSocketChannels": [],
        "CurrencyPairs": [
          {
            "Base": "LEDU",
            "Quote": "ETH"
          }
        ],
        "BalanceLimits": null,
        "Wallets": null,
        "SeleniumHost": null
      },
      {
        "Index": 3,
        "Name": "Livecoin",
        "IsTrading": false,
        "RestHost": null,
        "SequentialRest": false,
        "RequestOrderBook": true,
        "RequestTrades": false,
        "RequestCandlestick": false,
        "WebSocketHost": null,
        "WebSocket2Host": null,
        "DisableWebSocket": false,
        "Proxy": {
          "Url": "181.214.212.121:80",
          "UserName": "cdt",
          "Password": "123!Apassword"
        },
        "ApiKey": null,
        "ApiSecret": null,
        "PubNubSubscribeKey": null,
        "WebSocketChannels": [],
        "CurrencyPairs": [
          {
            "Base": "LEDU",
            "Quote": "BTC"
          }
        ],
        "BalanceLimits": null,
        "Wallets": null,
        "SeleniumHost": null
      },
      {
        "Index": 4,
        "Name": "Livecoin",
        "IsTrading": false,
        "RestHost": null,
        "SequentialRest": false,
        "RequestOrderBook": false,
        "RequestTrades": true,
        "RequestCandlestick": false,
        "WebSocketHost": null,
        "WebSocket2Host": null,
        "DisableWebSocket": false,
        "Proxy": {
          "Url": "107.175.13.219:80",
          "UserName": "cdt",
          "Password": "123!Apassword"
        },
        "ApiKey": null,
        "ApiSecret": null,
        "PubNubSubscribeKey": null,
        "WebSocketChannels": [],
        "CurrencyPairs": [
          {
            "Base": "LEDU",
            "Quote": "BTC"
          }
        ],
        "BalanceLimits": null,
        "Wallets": null,
        "SeleniumHost": null
      },
      {
        "Index": 0,
        "Name": "Idex",
        "IsTrading": null,
        "RestHost": null,
        "SequentialRest": false,
        "RequestOrderBook": true,
        "RequestTrades": true,
        "RequestCandlestick": false,
        "WebSocketHost": null,
        "WebSocket2Host": null,
        "DisableWebSocket": false,
        "Proxy": null,
        "ApiKey": "0x5073a5012b06696a1c83b477ca049f5487150283",
        "ApiSecret": "0xaf68c2100468a3d5e43c56d1c964b2c23cb873e0d5ca47c875a800d722c33795",
        "PubNubSubscribeKey": null,
        "WebSocketChannels": [],
        "CurrencyPairs": [
          {
            "Base": "LEDU",
            "Quote": "ETH"
          }
        ],
        "BalanceLimits": null,
        "Wallets": null,
        "SeleniumHost": null
      },
      {
        "Index": 0,
        "Name": "Bitforex",
        "IsTrading": null,
        "RestHost": null,
        "SequentialRest": false,
        "RequestOrderBook": false,
        "RequestTrades": false,
        "RequestCandlestick": false,
        "WebSocketHost": null,
        "WebSocket2Host": null,
        "DisableWebSocket": false,
        "Proxy": {
          "Url": "181.214.213.8:80",
          "UserName": "cdt",
          "Password": "123!Apassword"
        },
        "ApiKey": "7148088762f3cdd89355d1f9d05e24fd",
        "ApiSecret": "715d890eedf2579d829c8427ba4b0ea3",
        "PubNubSubscribeKey": null,
        "WebSocketChannels": [],
        "CurrencyPairs": [
          {
            "Base": "LEDU",
            "Quote": "ETH"
          }
        ],
        "BalanceLimits": null,
        "Wallets": null,
        "SeleniumHost": null
      },
      {
        "Index": 1,
        "Name": "Bitforex",
        "IsTrading": null,
        "RestHost": null,
        "SequentialRest": false,
        "RequestOrderBook": false,
        "RequestTrades": false,
        "RequestCandlestick": false,
        "WebSocketHost": null,
        "WebSocket2Host": null,
        "DisableWebSocket": false,
        "Proxy": {
          "Url": "185.202.114.11:80",
          "UserName": "cdt",
          "Password": "123!Apassword"
        },
        "ApiKey": "fa18791bb473a9561c74f72de31f51c8",
        "ApiSecret": "70b65b2e218881131b3b9fc6cee5baa3",
        "PubNubSubscribeKey": null,
        "WebSocketChannels": [],
        "CurrencyPairs": [
          {
            "Base": "LEDU",
            "Quote": "ETH"
          }
        ],
        "BalanceLimits": null,
        "Wallets": null,
        "SeleniumHost": null
      },
      {
        "Index": 2,
        "Name": "Bitforex",
        "IsTrading": false,
        "RestHost": null,
        "SequentialRest": false,
        "RequestOrderBook": true,
        "RequestTrades": false,
        "RequestCandlestick": false,
        "WebSocketHost": null,
        "WebSocket2Host": null,
        "DisableWebSocket": false,
        "Proxy": {
          "Url": "181.214.212.121:80",
          "UserName": "cdt",
          "Password": "123!Apassword"
        },
        "ApiKey": null,
        "ApiSecret": null,
        "PubNubSubscribeKey": null,
        "WebSocketChannels": [],
        "CurrencyPairs": [
          {
            "Base": "LEDU",
            "Quote": "ETH"
          }
        ],
        "BalanceLimits": null,
        "Wallets": null,
        "SeleniumHost": null
      },
      {
        "Index": 3,
        "Name": "Bitforex",
        "IsTrading": false,
        "RestHost": null,
        "SequentialRest": false,
        "RequestOrderBook": false,
        "RequestTrades": true,
        "RequestCandlestick": false,
        "WebSocketHost": null,
        "WebSocket2Host": null,
        "DisableWebSocket": false,
        "Proxy": null,
        "ApiKey": null,
        "ApiSecret": null,
        "PubNubSubscribeKey": null,
        "WebSocketChannels": [],
        "CurrencyPairs": [
          {
            "Base": "LEDU",
            "Quote": "ETH"
          }
        ],
        "BalanceLimits": null,
        "Wallets": null,
        "SeleniumHost": null
      }
    ],
    "Arbitrage": null,
    "SignalProviders": null,
    "TargetSignals": null
  }
}
2018-09-04 18:50:25.636 +07:00 [INF] Starting bot
2018-09-04 18:50:25.649 +07:00 [INF] Connecting
2018-09-04 18:50:25.652 +07:00 [INF] Connecting
2018-09-04 18:50:25.654 +07:00 [INF] Connecting
2018-09-04 18:50:25.654 +07:00 [INF] Connecting
2018-09-04 18:50:25.654 +07:00 [INF] Connecting
2018-09-04 18:50:25.654 +07:00 [INF] Connecting
2018-09-04 18:50:25.654 +07:00 [INF] Connecting
2018-09-04 18:50:25.654 +07:00 [INF] Connecting
2018-09-04 18:50:25.654 +07:00 [INF] Connecting
2018-09-04 18:50:25.654 +07:00 [INF] Connecting
2018-09-04 18:50:25.823 +07:00 [INF] Canceling opened orders started
2018-09-04 18:50:33.336 +07:00 [INF] Canceling opened orders finished
2018-09-04 18:50:33.340 +07:00 [INF] Getting balances started
2018-09-04 18:50:39.732 +07:00 [INF] Getting balances finished
2018-09-04 18:50:39.750 +07:00 [INF] Started bot
2018-09-04 18:50:40.289 +07:00 [ERR] Exception in HandleMarketData
System.ArgumentException: The tasks argument contains no tasks.
Parameter name: tasks
   at System.Threading.Tasks.Task.WhenAny(IEnumerable`1 tasks)
   at CryptoLp.Bot.Bot.HandleMarketData(Object obj) in /Users/alexidsa/Code/CryptoDreamTeam/CryptoLp/Bot/Bot.cs:line 75
2018-09-04 18:50:41.647 +07:00 [ERR] Unhandled exception
System.ArgumentException: The tasks argument contains no tasks.
Parameter name: tasks
   at System.Threading.Tasks.Task.WhenAny(IEnumerable`1 tasks)
   at CryptoLp.Bot.Bot.HandleMarketData(Object obj) in /Users/alexidsa/Code/CryptoDreamTeam/CryptoLp/Bot/Bot.cs:line 75
   at System.Runtime.CompilerServices.AsyncMethodBuilderCore.<>c.<ThrowAsync>b__7_1(Object state)
   at System.Threading.QueueUserWorkItemCallbackDefaultContext.<>c.<.cctor>b__5_0(Object state)
   at System.Threading.ExecutionContext.RunInternal(ExecutionContext executionContext, ContextCallback callback, Object state)
--- End of stack trace from previous location where exception was thrown ---
   at System.Threading.ExecutionContext.RunInternal(ExecutionContext executionContext, ContextCallback callback, Object state)
   at System.Threading.QueueUserWorkItemCallbackDefaultContext.ExecuteWorkItem()
   at System.Threading.ThreadPoolWorkQueue.Dispatch()
   at System.Threading._ThreadPoolWaitCallback.PerformWaitCallback()
2018-09-04 19:25:20.951 +07:00 [INF] ********************************************************************************
2018-09-04 19:25:21.038 +07:00 [INF] Bot started session
2018-09-04 19:25:23.109 +07:00 [INF] AppSettings serialized:
{
  "Bot": {
    "TradeAmount": {
      "Btc": 0.002,
      "Eth": 0.01,
      "Ledu": 80.0,
      "Zec": 0.04
    },
    "Telegram": {
      "ApiKey": "541930260:AAEY_2SCpLwBcTTtrQsOArAHptGuRyxWprE",
      "ChatId": -261385702,
      "ChatId2": 0
    },
    "PriceManagement": {
      "IsEnabled": false,
      "BuyTopOrder": {
        "IterationTimeoutInSeconds": 20.0,
        "OrderCancellationTimeoutInSeconds": 3.0,
        "LastTradeDiffTresholdInPercentage_Min": 0.1,
        "LastTradeDiffTresholdInPercentage_Max": 0.15,
        "Exchanges": {
          "Idex0": {
            "LEDU/ETH": {
              "BuyAmount_Min": 5500.0,
              "BuyAmount_Max": 6000.0
            }
          }
        }
      },
      "MinSpread": {
        "IterationTimeoutInSeconds": 20.0,
        "SpreadTresholdInPercentage_Min": 1.0,
        "SpreadTresholdInPercentage_Max": 2.0,
        "PriceIncreaseInPercentage": 0.1,
        "Exchanges": {
          "Idex0": {
            "LEDU/ETH": {
              "BuyAmount_Min": 5500.0,
              "BuyAmount_Max": 6000.0
            }
          }
        }
      }
    },
    "WashTrading": {
      "IsEnabled": false,
      "PriceMaxDropdown": 5.0,
      "TradesAnalizeWindowDuration": 5.0,
      "ExchangePairs": [
        {
          "Exchange1": "Bitforex0",
          "Exchange2": "Bitforex1",
          "Symbols": [
            "LEDU/ETH"
          ]
        }
      ]
    },
    "Liquidity": {
      "IsEnabled": false,
      "AllowedMaxSpread": 0.1,
      "Exchanges": {
        "GateIo0": [
          "LEDU/ETH"
        ]
      }
    }
  },
  "Core": {
    "Timeout": {
      "Bitforex0": 1000,
      "Bitforex1": 1000,
      "Bitforex2": 1000,
      "Bitforex3": 1000,
      "GateIo0": 1000,
      "Livecoin0": 0
    },
    "IsRecordingMarketData": true,
    "IsReducingMarketData": true,
    "IsTrading": true,
    "Database": {
      "ConnectionString": "Server=localhost;database=cryptolpbotledu;Pooling=false;"
    },
    "Commissions": {
      "Bitforex0": {
        "Fee": 0.05,
        "ReferralReward": 0.0,
        "EffectiveComission": 0.0500
      },
      "GateIo0": {
        "Fee": 0.2,
        "ReferralReward": 0.0,
        "EffectiveComission": 0.200
      },
      "Idex0": {
        "Fee": 0.2,
        "ReferralReward": 0.0,
        "EffectiveComission": 0.200
      },
      "Livecoin0": {
        "Fee": 0.2,
        "ReferralReward": 0.0,
        "EffectiveComission": 0.200
      }
    },
    "Exchanges": [
      {
        "Index": 0,
        "Name": "Livecoin",
        "IsTrading": null,
        "RestHost": null,
        "SequentialRest": false,
        "RequestOrderBook": false,
        "RequestTrades": false,
        "RequestCandlestick": false,
        "WebSocketHost": null,
        "WebSocket2Host": null,
        "DisableWebSocket": false,
        "Proxy": {
          "Url": "107.174.227.158:80",
          "UserName": "cdt",
          "Password": "123!Apassword"
        },
        "ApiKey": "vVfjYcSRcxW29rYEttWJFQGKQNJ17xxg",
        "ApiSecret": "hPnAxsNF8wCVUCtnJeypD2C1CHYx2QWY",
        "PubNubSubscribeKey": null,
        "WebSocketChannels": [],
        "CurrencyPairs": [
          {
            "Base": "LEDU",
            "Quote": "ETH"
          },
          {
            "Base": "LEDU",
            "Quote": "BTC"
          }
        ],
        "BalanceLimits": null,
        "Wallets": null,
        "SeleniumHost": null
      },
      {
        "Index": 1,
        "Name": "Livecoin",
        "IsTrading": false,
        "RestHost": null,
        "SequentialRest": false,
        "RequestOrderBook": true,
        "RequestTrades": false,
        "RequestCandlestick": false,
        "WebSocketHost": null,
        "WebSocket2Host": null,
        "DisableWebSocket": false,
        "Proxy": {
          "Url": "181.214.213.8:80",
          "UserName": "cdt",
          "Password": "123!Apassword"
        },
        "ApiKey": null,
        "ApiSecret": null,
        "PubNubSubscribeKey": null,
        "WebSocketChannels": [],
        "CurrencyPairs": [
          {
            "Base": "LEDU",
            "Quote": "ETH"
          }
        ],
        "BalanceLimits": null,
        "Wallets": null,
        "SeleniumHost": null
      },
      {
        "Index": 2,
        "Name": "Livecoin",
        "IsTrading": false,
        "RestHost": null,
        "SequentialRest": false,
        "RequestOrderBook": false,
        "RequestTrades": true,
        "RequestCandlestick": false,
        "WebSocketHost": null,
        "WebSocket2Host": null,
        "DisableWebSocket": false,
        "Proxy": {
          "Url": "185.202.114.11:80",
          "UserName": "cdt",
          "Password": "123!Apassword"
        },
        "ApiKey": null,
        "ApiSecret": null,
        "PubNubSubscribeKey": null,
        "WebSocketChannels": [],
        "CurrencyPairs": [
          {
            "Base": "LEDU",
            "Quote": "ETH"
          }
        ],
        "BalanceLimits": null,
        "Wallets": null,
        "SeleniumHost": null
      },
      {
        "Index": 3,
        "Name": "Livecoin",
        "IsTrading": false,
        "RestHost": null,
        "SequentialRest": false,
        "RequestOrderBook": true,
        "RequestTrades": false,
        "RequestCandlestick": false,
        "WebSocketHost": null,
        "WebSocket2Host": null,
        "DisableWebSocket": false,
        "Proxy": {
          "Url": "181.214.212.121:80",
          "UserName": "cdt",
          "Password": "123!Apassword"
        },
        "ApiKey": null,
        "ApiSecret": null,
        "PubNubSubscribeKey": null,
        "WebSocketChannels": [],
        "CurrencyPairs": [
          {
            "Base": "LEDU",
            "Quote": "BTC"
          }
        ],
        "BalanceLimits": null,
        "Wallets": null,
        "SeleniumHost": null
      },
      {
        "Index": 4,
        "Name": "Livecoin",
        "IsTrading": false,
        "RestHost": null,
        "SequentialRest": false,
        "RequestOrderBook": false,
        "RequestTrades": true,
        "RequestCandlestick": false,
        "WebSocketHost": null,
        "WebSocket2Host": null,
        "DisableWebSocket": false,
        "Proxy": {
          "Url": "107.175.13.219:80",
          "UserName": "cdt",
          "Password": "123!Apassword"
        },
        "ApiKey": null,
        "ApiSecret": null,
        "PubNubSubscribeKey": null,
        "WebSocketChannels": [],
        "CurrencyPairs": [
          {
            "Base": "LEDU",
            "Quote": "BTC"
          }
        ],
        "BalanceLimits": null,
        "Wallets": null,
        "SeleniumHost": null
      },
      {
        "Index": 0,
        "Name": "Idex",
        "IsTrading": null,
        "RestHost": null,
        "SequentialRest": false,
        "RequestOrderBook": true,
        "RequestTrades": true,
        "RequestCandlestick": false,
        "WebSocketHost": null,
        "WebSocket2Host": null,
        "DisableWebSocket": false,
        "Proxy": null,
        "ApiKey": "0x5073a5012b06696a1c83b477ca049f5487150283",
        "ApiSecret": "0xaf68c2100468a3d5e43c56d1c964b2c23cb873e0d5ca47c875a800d722c33795",
        "PubNubSubscribeKey": null,
        "WebSocketChannels": [],
        "CurrencyPairs": [
          {
            "Base": "LEDU",
            "Quote": "ETH"
          }
        ],
        "BalanceLimits": null,
        "Wallets": null,
        "SeleniumHost": null
      },
      {
        "Index": 0,
        "Name": "Bitforex",
        "IsTrading": null,
        "RestHost": null,
        "SequentialRest": false,
        "RequestOrderBook": false,
        "RequestTrades": false,
        "RequestCandlestick": false,
        "WebSocketHost": null,
        "WebSocket2Host": null,
        "DisableWebSocket": false,
        "Proxy": {
          "Url": "181.214.213.8:80",
          "UserName": "cdt",
          "Password": "123!Apassword"
        },
        "ApiKey": "7148088762f3cdd89355d1f9d05e24fd",
        "ApiSecret": "715d890eedf2579d829c8427ba4b0ea3",
        "PubNubSubscribeKey": null,
        "WebSocketChannels": [],
        "CurrencyPairs": [
          {
            "Base": "LEDU",
            "Quote": "ETH"
          }
        ],
        "BalanceLimits": null,
        "Wallets": null,
        "SeleniumHost": null
      },
      {
        "Index": 1,
        "Name": "Bitforex",
        "IsTrading": null,
        "RestHost": null,
        "SequentialRest": false,
        "RequestOrderBook": false,
        "RequestTrades": false,
        "RequestCandlestick": false,
        "WebSocketHost": null,
        "WebSocket2Host": null,
        "DisableWebSocket": false,
        "Proxy": {
          "Url": "185.202.114.11:80",
          "UserName": "cdt",
          "Password": "123!Apassword"
        },
        "ApiKey": "fa18791bb473a9561c74f72de31f51c8",
        "ApiSecret": "70b65b2e218881131b3b9fc6cee5baa3",
        "PubNubSubscribeKey": null,
        "WebSocketChannels": [],
        "CurrencyPairs": [
          {
            "Base": "LEDU",
            "Quote": "ETH"
          }
        ],
        "BalanceLimits": null,
        "Wallets": null,
        "SeleniumHost": null
      },
      {
        "Index": 2,
        "Name": "Bitforex",
        "IsTrading": false,
        "RestHost": null,
        "SequentialRest": false,
        "RequestOrderBook": true,
        "RequestTrades": false,
        "RequestCandlestick": false,
        "WebSocketHost": null,
        "WebSocket2Host": null,
        "DisableWebSocket": false,
        "Proxy": {
          "Url": "181.214.212.121:80",
          "UserName": "cdt",
          "Password": "123!Apassword"
        },
        "ApiKey": null,
        "ApiSecret": null,
        "PubNubSubscribeKey": null,
        "WebSocketChannels": [],
        "CurrencyPairs": [
          {
            "Base": "LEDU",
            "Quote": "ETH"
          }
        ],
        "BalanceLimits": null,
        "Wallets": null,
        "SeleniumHost": null
      },
      {
        "Index": 3,
        "Name": "Bitforex",
        "IsTrading": false,
        "RestHost": null,
        "SequentialRest": false,
        "RequestOrderBook": false,
        "RequestTrades": true,
        "RequestCandlestick": false,
        "WebSocketHost": null,
        "WebSocket2Host": null,
        "DisableWebSocket": false,
        "Proxy": {
          "Url": "107.175.13.219:80",
          "UserName": "cdt",
          "Password": "123!Apassword"
        },
        "ApiKey": null,
        "ApiSecret": null,
        "PubNubSubscribeKey": null,
        "WebSocketChannels": [],
        "CurrencyPairs": [
          {
            "Base": "LEDU",
            "Quote": "ETH"
          }
        ],
        "BalanceLimits": null,
        "Wallets": null,
        "SeleniumHost": null
      }
    ],
    "Arbitrage": null,
    "SignalProviders": null,
    "TargetSignals": null
  }
}
2018-09-04 19:26:18.459 +07:00 [INF] Starting bot
2018-09-04 19:26:18.470 +07:00 [INF] Connecting
2018-09-04 19:26:18.475 +07:00 [INF] Connecting
2018-09-04 19:26:18.475 +07:00 [INF] Connecting
2018-09-04 19:26:18.476 +07:00 [INF] Connecting
2018-09-04 19:26:18.476 +07:00 [INF] Connecting
2018-09-04 19:26:18.476 +07:00 [INF] Connecting
2018-09-04 19:26:18.476 +07:00 [INF] Connecting
2018-09-04 19:26:18.476 +07:00 [INF] Connecting
2018-09-04 19:26:18.476 +07:00 [INF] Connecting
2018-09-04 19:26:18.476 +07:00 [INF] Connecting
2018-09-04 19:26:18.537 +07:00 [INF] Canceling opened orders started
2018-09-04 19:26:25.968 +07:00 [INF] Canceling opened orders finished
2018-09-04 19:26:25.972 +07:00 [INF] Getting balances started
2018-09-04 19:26:32.169 +07:00 [INF] Getting balances finished
2018-09-04 19:26:32.278 +07:00 [INF] Started bot
2018-09-04 19:26:32.780 +07:00 [ERR] Exception in HandleMarketData
System.ArgumentException: The tasks argument contains no tasks.
Parameter name: tasks
   at System.Threading.Tasks.Task.WhenAny(IEnumerable`1 tasks)
   at CryptoLp.Bot.Bot.HandleMarketData(Object obj) in /Users/alexidsa/Code/CryptoDreamTeam/CryptoLp/Bot/Bot.cs:line 75
2018-09-04 19:26:34.101 +07:00 [ERR] Unhandled exception
System.ArgumentException: The tasks argument contains no tasks.
Parameter name: tasks
   at System.Threading.Tasks.Task.WhenAny(IEnumerable`1 tasks)
   at CryptoLp.Bot.Bot.HandleMarketData(Object obj) in /Users/alexidsa/Code/CryptoDreamTeam/CryptoLp/Bot/Bot.cs:line 75
   at System.Runtime.CompilerServices.AsyncMethodBuilderCore.<>c.<ThrowAsync>b__7_1(Object state)
   at System.Threading.QueueUserWorkItemCallbackDefaultContext.<>c.<.cctor>b__5_0(Object state)
   at System.Threading.ExecutionContext.RunInternal(ExecutionContext executionContext, ContextCallback callback, Object state)
--- End of stack trace from previous location where exception was thrown ---
   at System.Threading.ExecutionContext.RunInternal(ExecutionContext executionContext, ContextCallback callback, Object state)
   at System.Threading.QueueUserWorkItemCallbackDefaultContext.ExecuteWorkItem()
   at System.Threading.ThreadPoolWorkQueue.Dispatch()
   at System.Threading._ThreadPoolWaitCallback.PerformWaitCallback()
2018-09-04 19:27:48.029 +07:00 [INF] ********************************************************************************
2018-09-04 19:27:48.110 +07:00 [INF] Bot started session
2018-09-04 19:27:49.581 +07:00 [INF] AppSettings serialized:
{
  "Bot": {
    "TradeAmount": {
      "Btc": 0.002,
      "Eth": 0.01,
      "Ledu": 80.0,
      "Zec": 0.04
    },
    "Telegram": {
      "ApiKey": "541930260:AAEY_2SCpLwBcTTtrQsOArAHptGuRyxWprE",
      "ChatId": -261385702,
      "ChatId2": 0
    },
    "PriceManagement": {
      "IsEnabled": false,
      "BuyTopOrder": {
        "IterationTimeoutInSeconds": 20.0,
        "OrderCancellationTimeoutInSeconds": 3.0,
        "LastTradeDiffTresholdInPercentage_Min": 0.1,
        "LastTradeDiffTresholdInPercentage_Max": 0.15,
        "Exchanges": {
          "Idex0": {
            "LEDU/ETH": {
              "BuyAmount_Min": 5500.0,
              "BuyAmount_Max": 6000.0
            }
          }
        }
      },
      "MinSpread": {
        "IterationTimeoutInSeconds": 20.0,
        "SpreadTresholdInPercentage_Min": 1.0,
        "SpreadTresholdInPercentage_Max": 2.0,
        "PriceIncreaseInPercentage": 0.1,
        "Exchanges": {
          "Idex0": {
            "LEDU/ETH": {
              "BuyAmount_Min": 5500.0,
              "BuyAmount_Max": 6000.0
            }
          }
        }
      }
    },
    "WashTrading": {
      "IsEnabled": true,
      "PriceMaxDropdown": 5.0,
      "TradesAnalizeWindowDuration": 5.0,
      "ExchangePairs": [
        {
          "Exchange1": "Bitforex0",
          "Exchange2": "Bitforex1",
          "Symbols": [
            "LEDU/ETH"
          ]
        }
      ]
    },
    "Liquidity": {
      "IsEnabled": false,
      "AllowedMaxSpread": 0.1,
      "Exchanges": {
        "GateIo0": [
          "LEDU/ETH"
        ]
      }
    }
  },
  "Core": {
    "Timeout": {
      "Bitforex0": 1000,
      "Bitforex1": 1000,
      "Bitforex2": 1000,
      "Bitforex3": 1000,
      "GateIo0": 1000,
      "Livecoin0": 0
    },
    "IsRecordingMarketData": true,
    "IsReducingMarketData": true,
    "IsTrading": true,
    "Database": {
      "ConnectionString": "Server=localhost;database=cryptolpbotledu;Pooling=false;"
    },
    "Commissions": {
      "Bitforex0": {
        "Fee": 0.05,
        "ReferralReward": 0.0,
        "EffectiveComission": 0.0500
      },
      "GateIo0": {
        "Fee": 0.2,
        "ReferralReward": 0.0,
        "EffectiveComission": 0.200
      },
      "Idex0": {
        "Fee": 0.2,
        "ReferralReward": 0.0,
        "EffectiveComission": 0.200
      },
      "Livecoin0": {
        "Fee": 0.2,
        "ReferralReward": 0.0,
        "EffectiveComission": 0.200
      }
    },
    "Exchanges": [
      {
        "Index": 0,
        "Name": "Livecoin",
        "IsTrading": null,
        "RestHost": null,
        "SequentialRest": false,
        "RequestOrderBook": false,
        "RequestTrades": false,
        "RequestCandlestick": false,
        "WebSocketHost": null,
        "WebSocket2Host": null,
        "DisableWebSocket": false,
        "Proxy": {
          "Url": "107.174.227.158:80",
          "UserName": "cdt",
          "Password": "123!Apassword"
        },
        "ApiKey": "vVfjYcSRcxW29rYEttWJFQGKQNJ17xxg",
        "ApiSecret": "hPnAxsNF8wCVUCtnJeypD2C1CHYx2QWY",
        "PubNubSubscribeKey": null,
        "WebSocketChannels": [],
        "CurrencyPairs": [
          {
            "Base": "LEDU",
            "Quote": "ETH"
          },
          {
            "Base": "LEDU",
            "Quote": "BTC"
          }
        ],
        "BalanceLimits": null,
        "Wallets": null,
        "SeleniumHost": null
      },
      {
        "Index": 1,
        "Name": "Livecoin",
        "IsTrading": false,
        "RestHost": null,
        "SequentialRest": false,
        "RequestOrderBook": true,
        "RequestTrades": false,
        "RequestCandlestick": false,
        "WebSocketHost": null,
        "WebSocket2Host": null,
        "DisableWebSocket": false,
        "Proxy": {
          "Url": "181.214.213.8:80",
          "UserName": "cdt",
          "Password": "123!Apassword"
        },
        "ApiKey": null,
        "ApiSecret": null,
        "PubNubSubscribeKey": null,
        "WebSocketChannels": [],
        "CurrencyPairs": [
          {
            "Base": "LEDU",
            "Quote": "ETH"
          }
        ],
        "BalanceLimits": null,
        "Wallets": null,
        "SeleniumHost": null
      },
      {
        "Index": 2,
        "Name": "Livecoin",
        "IsTrading": false,
        "RestHost": null,
        "SequentialRest": false,
        "RequestOrderBook": false,
        "RequestTrades": true,
        "RequestCandlestick": false,
        "WebSocketHost": null,
        "WebSocket2Host": null,
        "DisableWebSocket": false,
        "Proxy": {
          "Url": "185.202.114.11:80",
          "UserName": "cdt",
          "Password": "123!Apassword"
        },
        "ApiKey": null,
        "ApiSecret": null,
        "PubNubSubscribeKey": null,
        "WebSocketChannels": [],
        "CurrencyPairs": [
          {
            "Base": "LEDU",
            "Quote": "ETH"
          }
        ],
        "BalanceLimits": null,
        "Wallets": null,
        "SeleniumHost": null
      },
      {
        "Index": 3,
        "Name": "Livecoin",
        "IsTrading": false,
        "RestHost": null,
        "SequentialRest": false,
        "RequestOrderBook": true,
        "RequestTrades": false,
        "RequestCandlestick": false,
        "WebSocketHost": null,
        "WebSocket2Host": null,
        "DisableWebSocket": false,
        "Proxy": {
          "Url": "181.214.212.121:80",
          "UserName": "cdt",
          "Password": "123!Apassword"
        },
        "ApiKey": null,
        "ApiSecret": null,
        "PubNubSubscribeKey": null,
        "WebSocketChannels": [],
        "CurrencyPairs": [
          {
            "Base": "LEDU",
            "Quote": "BTC"
          }
        ],
        "BalanceLimits": null,
        "Wallets": null,
        "SeleniumHost": null
      },
      {
        "Index": 4,
        "Name": "Livecoin",
        "IsTrading": false,
        "RestHost": null,
        "SequentialRest": false,
        "RequestOrderBook": false,
        "RequestTrades": true,
        "RequestCandlestick": false,
        "WebSocketHost": null,
        "WebSocket2Host": null,
        "DisableWebSocket": false,
        "Proxy": {
          "Url": "107.175.13.219:80",
          "UserName": "cdt",
          "Password": "123!Apassword"
        },
        "ApiKey": null,
        "ApiSecret": null,
        "PubNubSubscribeKey": null,
        "WebSocketChannels": [],
        "CurrencyPairs": [
          {
            "Base": "LEDU",
            "Quote": "BTC"
          }
        ],
        "BalanceLimits": null,
        "Wallets": null,
        "SeleniumHost": null
      },
      {
        "Index": 0,
        "Name": "Idex",
        "IsTrading": null,
        "RestHost": null,
        "SequentialRest": false,
        "RequestOrderBook": true,
        "RequestTrades": true,
        "RequestCandlestick": false,
        "WebSocketHost": null,
        "WebSocket2Host": null,
        "DisableWebSocket": false,
        "Proxy": null,
        "ApiKey": "0x5073a5012b06696a1c83b477ca049f5487150283",
        "ApiSecret": "0xaf68c2100468a3d5e43c56d1c964b2c23cb873e0d5ca47c875a800d722c33795",
        "PubNubSubscribeKey": null,
        "WebSocketChannels": [],
        "CurrencyPairs": [
          {
            "Base": "LEDU",
            "Quote": "ETH"
          }
        ],
        "BalanceLimits": null,
        "Wallets": null,
        "SeleniumHost": null
      },
      {
        "Index": 0,
        "Name": "Bitforex",
        "IsTrading": null,
        "RestHost": null,
        "SequentialRest": false,
        "RequestOrderBook": false,
        "RequestTrades": false,
        "RequestCandlestick": false,
        "WebSocketHost": null,
        "WebSocket2Host": null,
        "DisableWebSocket": false,
        "Proxy": {
          "Url": "181.214.213.8:80",
          "UserName": "cdt",
          "Password": "123!Apassword"
        },
        "ApiKey": "7148088762f3cdd89355d1f9d05e24fd",
        "ApiSecret": "715d890eedf2579d829c8427ba4b0ea3",
        "PubNubSubscribeKey": null,
        "WebSocketChannels": [],
        "CurrencyPairs": [
          {
            "Base": "LEDU",
            "Quote": "ETH"
          }
        ],
        "BalanceLimits": null,
        "Wallets": null,
        "SeleniumHost": null
      },
      {
        "Index": 1,
        "Name": "Bitforex",
        "IsTrading": null,
        "RestHost": null,
        "SequentialRest": false,
        "RequestOrderBook": false,
        "RequestTrades": false,
        "RequestCandlestick": false,
        "WebSocketHost": null,
        "WebSocket2Host": null,
        "DisableWebSocket": false,
        "Proxy": {
          "Url": "185.202.114.11:80",
          "UserName": "cdt",
          "Password": "123!Apassword"
        },
        "ApiKey": "fa18791bb473a9561c74f72de31f51c8",
        "ApiSecret": "70b65b2e218881131b3b9fc6cee5baa3",
        "PubNubSubscribeKey": null,
        "WebSocketChannels": [],
        "CurrencyPairs": [
          {
            "Base": "LEDU",
            "Quote": "ETH"
          }
        ],
        "BalanceLimits": null,
        "Wallets": null,
        "SeleniumHost": null
      },
      {
        "Index": 2,
        "Name": "Bitforex",
        "IsTrading": false,
        "RestHost": null,
        "SequentialRest": false,
        "RequestOrderBook": true,
        "RequestTrades": false,
        "RequestCandlestick": false,
        "WebSocketHost": null,
        "WebSocket2Host": null,
        "DisableWebSocket": false,
        "Proxy": {
          "Url": "181.214.212.121:80",
          "UserName": "cdt",
          "Password": "123!Apassword"
        },
        "ApiKey": null,
        "ApiSecret": null,
        "PubNubSubscribeKey": null,
        "WebSocketChannels": [],
        "CurrencyPairs": [
          {
            "Base": "LEDU",
            "Quote": "ETH"
          }
        ],
        "BalanceLimits": null,
        "Wallets": null,
        "SeleniumHost": null
      },
      {
        "Index": 3,
        "Name": "Bitforex",
        "IsTrading": false,
        "RestHost": null,
        "SequentialRest": false,
        "RequestOrderBook": false,
        "RequestTrades": true,
        "RequestCandlestick": false,
        "WebSocketHost": null,
        "WebSocket2Host": null,
        "DisableWebSocket": false,
        "Proxy": {
          "Url": "107.175.13.219:80",
          "UserName": "cdt",
          "Password": "123!Apassword"
        },
        "ApiKey": null,
        "ApiSecret": null,
        "PubNubSubscribeKey": null,
        "WebSocketChannels": [],
        "CurrencyPairs": [
          {
            "Base": "LEDU",
            "Quote": "ETH"
          }
        ],
        "BalanceLimits": null,
        "Wallets": null,
        "SeleniumHost": null
      }
    ],
    "Arbitrage": null,
    "SignalProviders": null,
    "TargetSignals": null
  }
}
2018-09-04 19:28:14.975 +07:00 [INF] ********************************************************************************
2018-09-04 19:28:15.072 +07:00 [INF] Bot started session
2018-09-04 19:28:16.262 +07:00 [INF] AppSettings serialized:
{
  "Bot": {
    "TradeAmount": {
      "Btc": 0.002,
      "Eth": 0.01,
      "Ledu": 80.0,
      "Zec": 0.04
    },
    "Telegram": {
      "ApiKey": "541930260:AAEY_2SCpLwBcTTtrQsOArAHptGuRyxWprE",
      "ChatId": -261385702,
      "ChatId2": 0
    },
    "PriceManagement": {
      "IsEnabled": true,
      "BuyTopOrder": {
        "IterationTimeoutInSeconds": 20.0,
        "OrderCancellationTimeoutInSeconds": 3.0,
        "LastTradeDiffTresholdInPercentage_Min": 0.1,
        "LastTradeDiffTresholdInPercentage_Max": 0.15,
        "Exchanges": {
          "Idex0": {
            "LEDU/ETH": {
              "BuyAmount_Min": 5500.0,
              "BuyAmount_Max": 6000.0
            }
          }
        }
      },
      "MinSpread": {
        "IterationTimeoutInSeconds": 20.0,
        "SpreadTresholdInPercentage_Min": 1.0,
        "SpreadTresholdInPercentage_Max": 2.0,
        "PriceIncreaseInPercentage": 0.1,
        "Exchanges": {
          "Idex0": {
            "LEDU/ETH": {
              "BuyAmount_Min": 5500.0,
              "BuyAmount_Max": 6000.0
            }
          }
        }
      }
    },
    "WashTrading": {
      "IsEnabled": true,
      "PriceMaxDropdown": 5.0,
      "TradesAnalizeWindowDuration": 5.0,
      "ExchangePairs": [
        {
          "Exchange1": "Bitforex0",
          "Exchange2": "Bitforex1",
          "Symbols": [
            "LEDU/ETH"
          ]
        }
      ]
    },
    "Liquidity": {
      "IsEnabled": false,
      "AllowedMaxSpread": 0.1,
      "Exchanges": {
        "GateIo0": [
          "LEDU/ETH"
        ]
      }
    }
  },
  "Core": {
    "Timeout": {
      "Bitforex0": 1000,
      "Bitforex1": 1000,
      "Bitforex2": 1000,
      "Bitforex3": 1000,
      "GateIo0": 1000,
      "Livecoin0": 0
    },
    "IsRecordingMarketData": true,
    "IsReducingMarketData": true,
    "IsTrading": true,
    "Database": {
      "ConnectionString": "Server=localhost;database=cryptolpbotledu;Pooling=false;"
    },
    "Commissions": {
      "Bitforex0": {
        "Fee": 0.05,
        "ReferralReward": 0.0,
        "EffectiveComission": 0.0500
      },
      "GateIo0": {
        "Fee": 0.2,
        "ReferralReward": 0.0,
        "EffectiveComission": 0.200
      },
      "Idex0": {
        "Fee": 0.2,
        "ReferralReward": 0.0,
        "EffectiveComission": 0.200
      },
      "Livecoin0": {
        "Fee": 0.2,
        "ReferralReward": 0.0,
        "EffectiveComission": 0.200
      }
    },
    "Exchanges": [
      {
        "Index": 0,
        "Name": "Livecoin",
        "IsTrading": null,
        "RestHost": null,
        "SequentialRest": false,
        "RequestOrderBook": false,
        "RequestTrades": false,
        "RequestCandlestick": false,
        "WebSocketHost": null,
        "WebSocket2Host": null,
        "DisableWebSocket": false,
        "Proxy": {
          "Url": "107.174.227.158:80",
          "UserName": "cdt",
          "Password": "123!Apassword"
        },
        "ApiKey": "vVfjYcSRcxW29rYEttWJFQGKQNJ17xxg",
        "ApiSecret": "hPnAxsNF8wCVUCtnJeypD2C1CHYx2QWY",
        "PubNubSubscribeKey": null,
        "WebSocketChannels": [],
        "CurrencyPairs": [
          {
            "Base": "LEDU",
            "Quote": "ETH"
          },
          {
            "Base": "LEDU",
            "Quote": "BTC"
          }
        ],
        "BalanceLimits": null,
        "Wallets": null,
        "SeleniumHost": null
      },
      {
        "Index": 1,
        "Name": "Livecoin",
        "IsTrading": false,
        "RestHost": null,
        "SequentialRest": false,
        "RequestOrderBook": true,
        "RequestTrades": false,
        "RequestCandlestick": false,
        "WebSocketHost": null,
        "WebSocket2Host": null,
        "DisableWebSocket": false,
        "Proxy": {
          "Url": "181.214.213.8:80",
          "UserName": "cdt",
          "Password": "123!Apassword"
        },
        "ApiKey": null,
        "ApiSecret": null,
        "PubNubSubscribeKey": null,
        "WebSocketChannels": [],
        "CurrencyPairs": [
          {
            "Base": "LEDU",
            "Quote": "ETH"
          }
        ],
        "BalanceLimits": null,
        "Wallets": null,
        "SeleniumHost": null
      },
      {
        "Index": 2,
        "Name": "Livecoin",
        "IsTrading": false,
        "RestHost": null,
        "SequentialRest": false,
        "RequestOrderBook": false,
        "RequestTrades": true,
        "RequestCandlestick": false,
        "WebSocketHost": null,
        "WebSocket2Host": null,
        "DisableWebSocket": false,
        "Proxy": {
          "Url": "185.202.114.11:80",
          "UserName": "cdt",
          "Password": "123!Apassword"
        },
        "ApiKey": null,
        "ApiSecret": null,
        "PubNubSubscribeKey": null,
        "WebSocketChannels": [],
        "CurrencyPairs": [
          {
            "Base": "LEDU",
            "Quote": "ETH"
          }
        ],
        "BalanceLimits": null,
        "Wallets": null,
        "SeleniumHost": null
      },
      {
        "Index": 3,
        "Name": "Livecoin",
        "IsTrading": false,
        "RestHost": null,
        "SequentialRest": false,
        "RequestOrderBook": true,
        "RequestTrades": false,
        "RequestCandlestick": false,
        "WebSocketHost": null,
        "WebSocket2Host": null,
        "DisableWebSocket": false,
        "Proxy": {
          "Url": "181.214.212.121:80",
          "UserName": "cdt",
          "Password": "123!Apassword"
        },
        "ApiKey": null,
        "ApiSecret": null,
        "PubNubSubscribeKey": null,
        "WebSocketChannels": [],
        "CurrencyPairs": [
          {
            "Base": "LEDU",
            "Quote": "BTC"
          }
        ],
        "BalanceLimits": null,
        "Wallets": null,
        "SeleniumHost": null
      },
      {
        "Index": 4,
        "Name": "Livecoin",
        "IsTrading": false,
        "RestHost": null,
        "SequentialRest": false,
        "RequestOrderBook": false,
        "RequestTrades": true,
        "RequestCandlestick": false,
        "WebSocketHost": null,
        "WebSocket2Host": null,
        "DisableWebSocket": false,
        "Proxy": {
          "Url": "107.175.13.219:80",
          "UserName": "cdt",
          "Password": "123!Apassword"
        },
        "ApiKey": null,
        "ApiSecret": null,
        "PubNubSubscribeKey": null,
        "WebSocketChannels": [],
        "CurrencyPairs": [
          {
            "Base": "LEDU",
            "Quote": "BTC"
          }
        ],
        "BalanceLimits": null,
        "Wallets": null,
        "SeleniumHost": null
      },
      {
        "Index": 0,
        "Name": "Idex",
        "IsTrading": null,
        "RestHost": null,
        "SequentialRest": false,
        "RequestOrderBook": true,
        "RequestTrades": true,
        "RequestCandlestick": false,
        "WebSocketHost": null,
        "WebSocket2Host": null,
        "DisableWebSocket": false,
        "Proxy": null,
        "ApiKey": "0x5073a5012b06696a1c83b477ca049f5487150283",
        "ApiSecret": "0xaf68c2100468a3d5e43c56d1c964b2c23cb873e0d5ca47c875a800d722c33795",
        "PubNubSubscribeKey": null,
        "WebSocketChannels": [],
        "CurrencyPairs": [
          {
            "Base": "LEDU",
            "Quote": "ETH"
          }
        ],
        "BalanceLimits": null,
        "Wallets": null,
        "SeleniumHost": null
      },
      {
        "Index": 0,
        "Name": "Bitforex",
        "IsTrading": null,
        "RestHost": null,
        "SequentialRest": false,
        "RequestOrderBook": false,
        "RequestTrades": false,
        "RequestCandlestick": false,
        "WebSocketHost": null,
        "WebSocket2Host": null,
        "DisableWebSocket": false,
        "Proxy": {
          "Url": "181.214.213.8:80",
          "UserName": "cdt",
          "Password": "123!Apassword"
        },
        "ApiKey": "7148088762f3cdd89355d1f9d05e24fd",
        "ApiSecret": "715d890eedf2579d829c8427ba4b0ea3",
        "PubNubSubscribeKey": null,
        "WebSocketChannels": [],
        "CurrencyPairs": [
          {
            "Base": "LEDU",
            "Quote": "ETH"
          }
        ],
        "BalanceLimits": null,
        "Wallets": null,
        "SeleniumHost": null
      },
      {
        "Index": 1,
        "Name": "Bitforex",
        "IsTrading": null,
        "RestHost": null,
        "SequentialRest": false,
        "RequestOrderBook": false,
        "RequestTrades": false,
        "RequestCandlestick": false,
        "WebSocketHost": null,
        "WebSocket2Host": null,
        "DisableWebSocket": false,
        "Proxy": {
          "Url": "185.202.114.11:80",
          "UserName": "cdt",
          "Password": "123!Apassword"
        },
        "ApiKey": "fa18791bb473a9561c74f72de31f51c8",
        "ApiSecret": "70b65b2e218881131b3b9fc6cee5baa3",
        "PubNubSubscribeKey": null,
        "WebSocketChannels": [],
        "CurrencyPairs": [
          {
            "Base": "LEDU",
            "Quote": "ETH"
          }
        ],
        "BalanceLimits": null,
        "Wallets": null,
        "SeleniumHost": null
      },
      {
        "Index": 2,
        "Name": "Bitforex",
        "IsTrading": false,
        "RestHost": null,
        "SequentialRest": false,
        "RequestOrderBook": true,
        "RequestTrades": false,
        "RequestCandlestick": false,
        "WebSocketHost": null,
        "WebSocket2Host": null,
        "DisableWebSocket": false,
        "Proxy": {
          "Url": "181.214.212.121:80",
          "UserName": "cdt",
          "Password": "123!Apassword"
        },
        "ApiKey": null,
        "ApiSecret": null,
        "PubNubSubscribeKey": null,
        "WebSocketChannels": [],
        "CurrencyPairs": [
          {
            "Base": "LEDU",
            "Quote": "ETH"
          }
        ],
        "BalanceLimits": null,
        "Wallets": null,
        "SeleniumHost": null
      },
      {
        "Index": 3,
        "Name": "Bitforex",
        "IsTrading": false,
        "RestHost": null,
        "SequentialRest": false,
        "RequestOrderBook": false,
        "RequestTrades": true,
        "RequestCandlestick": false,
        "WebSocketHost": null,
        "WebSocket2Host": null,
        "DisableWebSocket": false,
        "Proxy": {
          "Url": "107.175.13.219:80",
          "UserName": "cdt",
          "Password": "123!Apassword"
        },
        "ApiKey": null,
        "ApiSecret": null,
        "PubNubSubscribeKey": null,
        "WebSocketChannels": [],
        "CurrencyPairs": [
          {
            "Base": "LEDU",
            "Quote": "ETH"
          }
        ],
        "BalanceLimits": null,
        "Wallets": null,
        "SeleniumHost": null
      }
    ],
    "Arbitrage": null,
    "SignalProviders": null,
    "TargetSignals": null
  }
}
2018-09-04 19:29:10.952 +07:00 [INF] Starting bot
2018-09-04 19:29:10.961 +07:00 [INF] Connecting
2018-09-04 19:29:10.971 +07:00 [INF] Connecting
2018-09-04 19:29:10.971 +07:00 [INF] Connecting
2018-09-04 19:29:10.971 +07:00 [INF] Connecting
2018-09-04 19:29:10.971 +07:00 [INF] Connecting
2018-09-04 19:29:10.971 +07:00 [INF] Connecting
2018-09-04 19:29:10.971 +07:00 [INF] Connecting
2018-09-04 19:29:10.971 +07:00 [INF] Connecting
2018-09-04 19:29:10.971 +07:00 [INF] Connecting
2018-09-04 19:29:10.972 +07:00 [INF] Connecting
2018-09-04 19:29:11.179 +07:00 [INF] Canceling opened orders started
2018-09-04 19:29:18.796 +07:00 [INF] Canceling opened orders finished
2018-09-04 19:29:18.799 +07:00 [INF] Getting balances started
2018-09-04 19:29:28.528 +07:00 [INF] Getting balances finished
2018-09-04 19:29:28.594 +07:00 [INF] Started bot
2018-09-04 19:29:38.888 +07:00 [INF] MS Idex0:LEDU_ETH Bid-Ask spread is 4.7138047138047138047138047100% >= 1.48795025771854%
2018-09-04 19:29:38.907 +07:00 [INF] Submitting order {"SignalId":null,"ExchangeId":"Idex0","ExchangeName":"Idex","CurrencyPair":"LEDU_ETH","ClientOrderId":"Idex0_qub0y59zz7","ExchangeOrderId":null,"Price":0.00002832,"Amount":5901.20808938,"Side":"Buy","Type":"Limit","FilledAmount":0,"Fills":[],"Status":"Creating","CreatedDateTime":"0001-01-01T00:00:00.0000000","CreationErrorMessage":null,"CreationErrorCode":null,"CancellationErrorMessage":null,"CancellationErrorCode":null,"Strategy":"PriceManipulation/MinSpread","IsFinished":false,"Id":0,"DateTime":"2018-09-04T12:29:38.8981990Z","$type":"Order"}
2018-09-04 19:29:46.714 +07:00 [INF] Order was created {"SignalId":null,"ExchangeId":"Idex0","ExchangeName":"Idex","CurrencyPair":"LEDU_ETH","ClientOrderId":"Idex0_qub0y59zz7","ExchangeOrderId":"0x0f7c1cd97bcbb91eca1ea8f9c6b736937a50377c71c9cabfd04ac95fc9e44340","Price":0.00002832,"Amount":5901.20808938,"Side":"Buy","Type":"Limit","FilledAmount":0,"Fills":[],"Status":"Created","CreatedDateTime":"2018-09-04T12:29:46.7139910Z","CreationErrorMessage":null,"CreationErrorCode":null,"CancellationErrorMessage":null,"CancellationErrorCode":null,"Strategy":"PriceManipulation/MinSpread","IsFinished":false,"Id":0,"DateTime":"2018-09-04T12:29:38.8981990Z","$type":"Order"}
2018-09-04 19:29:46.714 +07:00 [INF] Order was submitted {"SignalId":null,"ExchangeId":"Idex0","ExchangeName":"Idex","CurrencyPair":"LEDU_ETH","ClientOrderId":"Idex0_qub0y59zz7","ExchangeOrderId":"0x0f7c1cd97bcbb91eca1ea8f9c6b736937a50377c71c9cabfd04ac95fc9e44340","Price":0.00002832,"Amount":5901.20808938,"Side":"Buy","Type":"Limit","FilledAmount":0,"Fills":[],"Status":"Created","CreatedDateTime":"2018-09-04T12:29:46.7139910Z","CreationErrorMessage":null,"CreationErrorCode":null,"CancellationErrorMessage":null,"CancellationErrorCode":null,"Strategy":"PriceManipulation/MinSpread","IsFinished":false,"Id":0,"DateTime":"2018-09-04T12:29:38.8981990Z","$type":"Order"}
2018-09-04 19:29:46.716 +07:00 [INF] MS Idex0:LEDU_ETH order 0x0f7c1cd97bcbb91eca1ea8f9c6b736937a50377c71c9cabfd04ac95fc9e44340 is created. Price 0.00002832 amount 5901.20808938
2018-09-04 19:29:48.907 +07:00 [INF] Submitting order cancellation {"SignalId":null,"ExchangeId":"Idex0","ExchangeName":"Idex","CurrencyPair":"LEDU_ETH","ClientOrderId":"Idex0_qub0y59zz7","ExchangeOrderId":"0x0f7c1cd97bcbb91eca1ea8f9c6b736937a50377c71c9cabfd04ac95fc9e44340","Price":0.00002832,"Amount":5901.20808938,"Side":"Buy","Type":"Limit","FilledAmount":0,"Fills":[],"Status":"Canceling","CreatedDateTime":"2018-09-04T12:29:46.7139910Z","CreationErrorMessage":null,"CreationErrorCode":null,"CancellationErrorMessage":null,"CancellationErrorCode":null,"Strategy":"PriceManipulation/MinSpread","IsFinished":false,"Id":0,"DateTime":"2018-09-04T12:29:38.8981990Z","$type":"Order"}
2018-09-04 19:29:52.181 +07:00 [INF] Order was successfully canceled {"SignalId":null,"ExchangeId":"Idex0","ExchangeName":"Idex","CurrencyPair":"LEDU_ETH","ClientOrderId":"Idex0_qub0y59zz7","ExchangeOrderId":"0x0f7c1cd97bcbb91eca1ea8f9c6b736937a50377c71c9cabfd04ac95fc9e44340","Price":0.00002832,"Amount":5901.20808938,"Side":"Buy","Type":"Limit","FilledAmount":0,"Fills":[],"Status":"Canceled","CreatedDateTime":"2018-09-04T12:29:46.7139910Z","CreationErrorMessage":null,"CreationErrorCode":null,"CancellationErrorMessage":null,"CancellationErrorCode":null,"Strategy":"PriceManipulation/MinSpread","IsFinished":true,"Id":66001,"DateTime":"2018-09-04T12:29:38.8981990Z","$type":"Order"}
2018-09-04 19:29:52.182 +07:00 [INF] Submitted order cancellation {"SignalId":null,"ExchangeId":"Idex0","ExchangeName":"Idex","CurrencyPair":"LEDU_ETH","ClientOrderId":"Idex0_qub0y59zz7","ExchangeOrderId":"0x0f7c1cd97bcbb91eca1ea8f9c6b736937a50377c71c9cabfd04ac95fc9e44340","Price":0.00002832,"Amount":5901.20808938,"Side":"Buy","Type":"Limit","FilledAmount":0,"Fills":[],"Status":"Canceled","CreatedDateTime":"2018-09-04T12:29:46.7139910Z","CreationErrorMessage":null,"CreationErrorCode":null,"CancellationErrorMessage":null,"CancellationErrorCode":null,"Strategy":"PriceManipulation/MinSpread","IsFinished":true,"Id":66001,"DateTime":"2018-09-04T12:29:38.8981990Z","$type":"Order"}
2018-09-04 19:29:57.500 +07:00 [INF] MS Idex0:LEDU_ETH order 0x0f7c1cd97bcbb91eca1ea8f9c6b736937a50377c71c9cabfd04ac95fc9e44340 is canceled
2018-09-04 19:29:57.558 +07:00 [INF] MS Idex0:LEDU_ETH Bid-Ask spread is 4.7138047138047138047138047100% >= 1.528748038005432%
2018-09-04 19:29:57.559 +07:00 [INF] Submitting order {"SignalId":null,"ExchangeId":"Idex0","ExchangeName":"Idex","CurrencyPair":"LEDU_ETH","ClientOrderId":"Idex0_jwvbzocn9t","ExchangeOrderId":null,"Price":0.00002832,"Amount":5762.80131622,"Side":"Buy","Type":"Limit","FilledAmount":0,"Fills":[],"Status":"Creating","CreatedDateTime":"0001-01-01T00:00:00.0000000","CreationErrorMessage":null,"CreationErrorCode":null,"CancellationErrorMessage":null,"CancellationErrorCode":null,"Strategy":"PriceManipulation/MinSpread","IsFinished":false,"Id":0,"DateTime":"2018-09-04T12:29:57.5589640Z","$type":"Order"}
